{
    "monodix": {
        "redundantPardef":{
            "message": "Warning : Redundant pardef entry present for :",
            "enable" : false
        },
        "paradigmNames":{
            "message": "Warning : Improper paradigm name found :",
            "enable" : false
        },
        "rTagData":{
            "message": "Warning : Inconsitency in <r> text for pardef :",
            "enable" : false
        },
        "repeatedAttributesPardef":{
            "message": "Warning : Repeated attributes found in <s> tag of pardef :",
            "enable" : false
        },
        "repeatedEntriesPardef":{
            "message": "Warning : Repeated entries found in pardef :",
            "enable" : false
        },
        "repeatedEntriesMainSection":{
            "message": "Warning : Repeated entries found in main section entry :",
            "enable" : false
        },
        "repeatedTagEntries":{
            "message": "Warning : Repeated tag entries for <s> or <par> found in main section entry :",
            "enable" : false
        },
        "transferDirection":{
            "message": "Warning : Invalid transfer direction %s found for entry :",
            "enable" : false
        },
        "unusedParadigms":{
            "message": "Warning : Unused paradigm(s) found. List of unused paradigm(s) :",
            "enable" : false
        },
        "blankSpaceDetection":{
            "message": "Warning : Unused paradigm(s) found. List of unused paradigm(s) :",
            "enable" : false
        },
        "partiallyInLemma":{
            "message": "Warning : Issue regarding the lemma and the paradigm associated with it for the entry :",
            "enable" : false
        },
        "unwantedTag":{
            "message": "Warning : Unwanted <b/> tag found for the entry :",
            "enable" : false
        }

    },

    "bidix": {
        "transferDirection":{
            "message": "Warning : Invalid transfer direction found for entry :",
            "enable" : false
        },
        "unwantedWhiteSpace":{
            "message": "Warning : Unwanted White space found in the entry :",
            "enable" : false
        },
        "compareSdefs":{
            "message": "Warning : Certain Sdefs present in the bidix are absent in the monodix :",
            "enable" : false
        },
        "verifyInvariablePart":{
            "message": "Warning : Issue regarding usage of <g> tag found for entry : ",
            "enable" : false
        },
        "repeatedEntries":{
            "message": "Warning : Repeated entries found for entry : ",
            "enable" : false
        }
    },

    "transfer": {
        "repeatedEntriesCatItem":{
            "message": "Warning : Repeated cat-item found : ",
            "enable" : false
        },
        "repeatedEntriesAttrItem":{
            "message": "Warning : Repeated attr-item found : ",
            "enable" : false
        },
        "unusedDefCats":{
            "message": "Warning : Following def-cats have not been used : ",
            "enable" : false
        },
        "checkValidPartClip":{
            "message": "Warning : Invalid part='%s', found for entry : %s",
            "enable" : true
        },
        "checkValidEqualTag":{
            "message": "Warning : The 'part' does not correspond with the lit-tag : ",
            "enable" : true
        },
        "conflictingCatItem":{
            "message": "Warning : Repeated cat-item entry found for two def-cats : ",
            "enable" : false
        },
        "checkValidPosition":{
            "message": "Warning : The position mentioned for a tag in the entry is invalid : ",
            "enable" : false
        },
        "enforceBreakTag":{
            "message": "Warning : <b/> missing between consecutive <lu> elements for element : %s, on line number : %s ",
            "enable" : false
        },
        "xsdValidation":{
            "message": "Warning : The position mentioned for a tag in the entry is invalid : ",
            "enable" : true
        },
        "enforceSide":{
            "message": "Warning : Are you sure you want to specify side='sl' in the %s tag on line %s",
            "enable" : false
        },
        "macroNames":{
            "message": "Warning : Are you sure you want to specify multiple def-macros with the same n='' and npar='' values : ",
            "enable" : false
        }
    },

    "tagger": {
        "defLabelClosed":{
            "message": "Warning : Invalid value for 'closed' attribute used in def-label : ",
            "enable" : false
        },
        "validateLabelSequence":{
            "message": "Warning : Invalid label %s used in label sequence. ",
            "enable" : false
        },
        "repeatedDefLabel":{
            "message": "Warning : Repeated def-label : ",
            "enable" : true
        }
    },

    "modes": {
        "installBool":{
            "message": "Warning : Invalid install attrib : %s for <mode name=\"%s\">",
            "enable" : false
        },
        "repeatedProgram":{
            "message": "Warning : Repeated program definitions in : %s",
            "enable" : false
        },
        "validateProgram":{
            "message": "Warning : Invalid program : %s",
            "enable" : false
        },
        "locateFile":{
            "message": "Warning : File not found : %s",
            "enable" : false
        },
        "emptyProgram":{
            "message": "Warning : Are you sure you want to keep the program %s in the mode %s empty?",
            "enable" : false
        },
        "enforceRules":{
            "message": "Warning : Certain rules not followed in the modes file",
            "enable" : true
        },
        "installSwitchNo":{
            "message": "Warning : Improper mode name %s associated with attribute install = 'no'",
            "enable" : true
        }
    }
}
